Linear Regression Workshop
…
This is a sample set of transaction data in a 10 minute timeseries.

```r
data <- readRDS("data/rpmui.RDS")
```
--

```r
data
```

```
## # A tibble: 4,032 x 10
##    throughput duration timestamp           db_count db_duration
##         <dbl>    <dbl> <dttm>                 <dbl>       <dbl>
##  1     507834    0.214 2017-08-24 00:00:00  1187515      0.0406
##  2     512066    0.215 2017-08-24 00:10:00  1204292      0.0407
##  3     519936    0.215 2017-08-24 00:20:00  1222676      0.0401
##  4     528973    0.214 2017-08-24 00:30:00  1242789      0.0403
##  5     535520    0.215 2017-08-24 00:40:00  1248411      0.0402
##  6     536862    0.215 2017-08-24 00:50:00  1254707      0.0401
##  7     543581    0.215 2017-08-24 01:00:00  1273378      0.0408
##  8     546158    0.217 2017-08-24 01:10:00  1281504      0.0406
##  9     548215    0.219 2017-08-24 01:20:00  1287983      0.0405
## 10     548519    0.219 2017-08-24 01:30:00  1287467      0.0408
## # ... with 4,022 more rows, and 5 more variables: external_count <dbl>,
## #   external_duration <dbl>, day <fct>, minute_of_day <dbl>,
## #   start_time <dttm>
```
…
